340	0.00005
341	0.00005
342	0.00005
343	0.00005
344	0.00005
345	0.00005
346	0.00005
347	0.00005
348	0.00005
349	0.00005
350	0.0000481	
351	0.0000523	
352	0.0000497	
353	0.0000498	
354	0.0000477	
355	0.0000485	
356	0.0000470	
357	0.0000511	
358	0.0000489	
359	0.0000481	
360	0.0000481	
361	0.0000486	
362	0.0000513	
363	0.0000485	
364	0.0000473
365	0.0000493
366	0.0000480
367	0.0000488
368	0.0000473
369	0.0000485
370	0.0000475
371	0.0000497
372	0.0000471
373	0.0000494
374	0.0000477
375	0.0000468
376	0.0000476
377	0.0000464
378	0.0000472
379	0.0000473
380	0.0000462
381	0.0000448
382	0.0000455
383	0.0000441
384	0.0000434
385	0.0000449
386	0.0000439
387	0.0000415
388	0.0000415
389	0.0000424
390	0.0000405
391	0.0000411
392	0.0000404
393	0.0000400
394	0.0000410
395	0.0000407
396	0.0000401
397	0.0000395
398	0.0000402
399	0.0000387
400	0.0000394
401	0.0000371
402	0.0000383
403	0.0000357
404	0.0000370
405	0.0000353
406	0.0000351
407	0.0000352
408	0.0000340
409	0.0000349
410	0.0000334
411	0.0000350
412	0.0000348
413	0.0000335
414	0.0000332
415	0.0000321
416	0.0000326
417	0.0000309
418	0.0000305
419	0.0000302
420	0.0000299
421	0.0000289
422	0.0000301
423	0.0000289
424	0.0000288
425	0.0000278
426	0.0000285
427	0.0000271
428	0.0000280
429	0.0000284
430	0.0000277
431	0.0000274
432	0.0000270
433	0.0000260
434	0.0000252
435	0.0000266
436	0.0000267
437	0.0000263
438	0.0000260
439	0.0000260
440	0.0000269
441	0.0000255
442	0.0000256
443	0.0000252
444	0.0000252
445	0.0000245
446	0.0000245
447	0.0000245
448	0.0000244
449	0.0000246
450	0.0000241
451	0.0000250
452	0.0000235
453	0.0000227
454	0.0000241
455	0.0000243
456	0.0000248
457	0.0000229
458	0.0000228
459	0.0000230
460	0.0000231
461	0.0000218
462	0.0000208
463	0.0000213
464	0.0000224
465	0.0000250
466	0.0000237
467	0.0000237
468	0.0000208
469	0.0000215
470	0.0000208
471	0.0000199
472	0.0000193
473	0.0000199
474	0.0000198
475	0.0000186
476	0.0000189
477	0.0000173
478	0.0000176
479	0.0000174
480	0.0000176
481	0.0000180
482	0.0000177
483	0.0000181
484	0.0000164
485	0.0000157
486	0.0000170
487	0.0000179
488	0.0000169
489	0.0000166
490	0.0000166
491	0.0000163
492	0.0000161
493	0.0000170
494	0.0000179
495	0.0000171
496	0.0000177
497	0.0000170
498	0.0000182
499	0.0000185
500	0.0000176
501	0.0000178
502	0.0000169
503	0.0000178
504	0.0000170
505	0.0000171
506	0.0000174
507	0.0000173
508	0.0000172
509	0.0000184
510	0.0000183
511	0.0000176
512	0.0000188
513	0.0000194
514	0.0000178
515	0.0000173
516	0.0000157
517	0.0000158
518	0.0000155
519	0.0000148
520	0.0000144
521	0.0000134
522	0.0000137
523	0.0000138
524	0.0000134
525	0.0000131
526	0.0000145
527	0.0000135
528	0.0000130
529	0.0000121
530	0.0000138
531	0.0000124
532	0.0000123
533	0.0000130
534	0.0000135
535	0.0000136
536	0.0000128
537	0.0000129
538	0.0000126
539	0.0000120
540	0.0000124
541	0.0000140
542	0.0000127
543	0.0000144
544	0.0000135
545	0.0000130
546	0.0000144
547	0.0000132
548	0.0000138
549	0.0000156
550	0.0000150
551	0.0000155
552	0.0000155
553	0.0000184
554	0.0000172
555	0.0000192
556	0.0000210
557	0.0000217
558	0.0000213
559	0.0000236
560	0.0000227
561	0.0000233
562	0.0000239
563	0.0000213
564	0.0000220
565	0.0000226
566	0.0000260
567	0.0000248
568	0.0000249
569	0.0000259
570	0.0000268
571	0.0000256
572	0.0000240
573	0.0000225
574	0.0000214
575	0.0000163
576	0.0000146
577	0.0000119
578	0.0000094
579	0.0000053
580	0.0000044
581	0.0000042
582	0.0000021
583	0.0000005
584	0.0000011
585	0.0000001
586	0.0000014
587	0.0000001
588	0.0000009
589	0.0000004
590	0.0000003
591	0.0000017
592	0.0000012
593	0.0000035
594	0.0000009
595	0.0000012
596	0.0000029
597	0.0000024
598	0.0000032
599	0.0000034
600	0.0000038