340	0.0062200
341	0.0059100
342	0.0058200
343	0.0058800
344	0.0061000
345	0.0064200
346	0.0067300
347	0.0070500
348	0.0073900
349	0.0077100
350	0.0078400
351	0.0076600
352	0.0072100
353	0.0066200
354	0.0060000
355	0.0054900
356	0.0051500
357	0.0049700
358	0.0049200
359	0.0050000
360	0.0052400
361	0.0057000
362	0.0063300
363	0.0069700
364	0.0075200
365	0.0081100
366	0.0089200
367	0.0098700
368	0.0105800
369	0.0106100
370	0.0098700
371	0.0086900
372	0.0074300
373	0.0063300
374	0.0054400
375	0.0048300
376	0.0044400
377	0.0042400
378	0.0041800
379	0.0042900
380	0.0046100
381	0.0051100
382	0.0056700
383	0.0061100
384	0.0064100
385	0.0068400
386	0.0076300
387	0.0088100
388	0.0098900
389	0.0102000
390	0.0094800
391	0.0080100
392	0.0063700
393	0.0049700
394	0.0039000
395	0.0031200
396	0.0025500
397	0.0021100
398	0.0018000
399	0.0016000
400	0.0014800
401	0.0013900
402	0.0012800
403	0.0011500
404	0.0009996
405	0.0008540
406	0.0007323
407	0.0006406
408	0.0005601
409	0.0004910
410	0.0004262
411	0.0003700
412	0.0003174
413	0.0002712
414	0.0002290
415	0.0001953
416	0.0001670
417	0.0001430
418	0.0001192
419	0.0001042
420	0.0000939
421	0.0000820
422	0.0000749
423	0.0000708
424	0.0000623
425	0.0000590
426	0.0000556
427	0.0000532
428	0.0000521
429	0.0000490
430	0.0000472
431	0.0000455
432	0.0000444
433	0.0000448
434	0.0000423
435	0.0000392
436	0.0000395
437	0.0000399
438	0.0000380
439	0.0000395
440	0.0000368
441	0.0000355
442	0.0000374
443	0.0000350
444	0.0000350
445	0.0000336
446	0.0000321
447	0.0000315
448	0.0000322
449	0.0000291
450	0.0000293
451	0.0000293
452	0.0000289
453	0.0000282
454	0.0000265
455	0.0000271
456	0.0000274
457	0.0000271
458	0.0000252
459	0.0000247
460	0.0000244
461	0.0000245
462	0.0000241
463	0.0000239
464	0.0000238
465	0.0000213
466	0.0000217
467	0.0000220
468	0.0000253
469	0.0000237
470	0.0000238
471	0.0000226
472	0.0000221
473	0.0000230
474	0.0000191
475	0.0000195
476	0.0000190
477	0.0000178
478	0.0000178
479	0.0000162
480	0.0000167
481	0.0000141
482	0.0000146
483	0.0000143
484	0.0000144
485	0.0000139
486	0.0000129
487	0.0000121
488	0.0000122
489	0.0000123
490	0.0000134
491	0.0000123
492	0.0000118
493	0.0000134
494	0.0000118
495	0.0000118
496	0.0000105
497	0.0000130
498	0.0000138
499	0.0000134
500	0.0000118
501	0.0000118
502	0.0000117
503	0.0000107
504	0.0000109
505	0.0000113
506	0.0000096
507	0.0000079
508	0.0000095
509	0.0000088
510	0.0000107
511	0.0000086
512	0.0000085
513	0.0000077
514	0.0000080
515	0.0000070
516	0.0000065
517	0.0000075
518	0.0000058
519	0.0000062
520	0.0000058
521	0.0000057
522	0.0000057
523	0.0000062
524	0.0000071
525	0.0000062
526	0.0000066
527	0.0000083
528	0.0000087
529	0.0000095
530	0.0000109
531	0.0000112
532	0.0000138
533	0.0000138
534	0.0000116
535	0.0000101
536	0.0000091
537	0.0000054
538	0.0000038
539	0.0000037
540	0.0000027
541	0.0000026
542	0.0000015
543	0.0000015
544	0.0000014
545	0.0000036
546	0.0000030
547	0.0000040
548	0.0000048
549	0.0000044
550	0.0000048
551	0.0000054
552	0.0000072
553	0.0000065
554	0.0000079
555	0.0000097
556	0.0000102
557	0.0000114
558	0.0000135
559	0.0000121
560	0.0000130
561	0.0000132
562	0.0000125
563	0.0000128
564	0.0000115
565	0.0000128
566	0.0000141
567	0.0000122
568	0.0000146
569	0.0000188
570	0.0000192
571	0.0000198
572	0.0000163
573	0.0000132
574	0.0000114
575	0.0000097
576	0.0000090
577	0.0000077
578	0.0000042
579	0.0000035
580	0.0000002
581	0.0000021
582	0.0000002
583	0.0000001
584	0.0000001
585	0.0000001
586	0.0000001
587	0.0000001
588	0.0000001
589	0.0000005
590	0.0000005
591	0.0000020
592	0.0000021
593	0.0000051
594	0.0000056
595	0.0000098
596	0.0000071
597	0.0000103
598	0.0000130
599	0.0000149
600	0.0000191